Node 1  tux196.eng.auburn.edu, 10110 50  10 links 2 3
Node 2  tux196.eng.auburn.edu, 10115 50  50 links 1 5 6
Node 3  tux196.eng.auburn.edu, 10114 100 40 links 1 4 8
Node 4  tux196.eng.auburn.edu, 10116 100 60 links 3 7 9
Node 5  tux195.eng.auburn.edu, 10112 100 20 links 2 9
Node 6  tux195.eng.auburn.edu, 10115 100 50 links 2 10
Node 7  tux195.eng.auburn.edu, 10113 150 30 links 4 12
Node 8  tux195.eng.auburn.edu, 10117 150 70 links 3 11 13
Node 9  tux194.eng.auburn.edu, 10111 150 10 links 5 12 14
Node 10 tux194.eng.auburn.edu, 10112 150 20 links 6 13
Node 11 tux194.eng.auburn.edu, 10116 200 60 links 8 16
Node 12 tux194.eng.auburn.edu, 10114 200 40 links 7 9 15
Node 13 tux193.eng.auburn.edu, 10113 200 30 links 8 10 14 15
Node 14 tux193.eng.auburn.edu, 10110 200 10 links 9 13 15
Node 15 tux193.eng.auburn.edu, 10111 250 30 links 12 13 14 16
Node 16 tux193.eng.auburn.edu, 10115 250 80 links 11 15
